\relax 
\@writefile{toc}{\contentsline {section}{\numberline {1}Question}{1}}
\@writefile{toc}{\contentsline {section}{\numberline {2}Problem to solve}{1}}
\@writefile{toc}{\contentsline {section}{\numberline {3}Implementation}{1}}
\@writefile{lof}{\contentsline {figure}{\numberline {1}{\ignorespaces comparison between mysqrt() and sqrt() from math.h.}}{2}}
\newlabel{fig:erf}{{1}{2}}
